%YAML 1.1
%TAG !u! tag:unity3d.com,2011:
--- !u!1 &134534
GameObject:
  m_ObjectHideFlags: 0
  m_PrefabParentObject: {fileID: 0}
  m_PrefabInternal: {fileID: 100100000}
  serializedVersion: 5
  m_Component:
  - component: {fileID: 457106}
  - component: {fileID: 11477318}
  m_Layer: 0
  m_Name: SettingsManagerPrefab
  m_TagString: Untagged
  m_Icon: {fileID: 0}
  m_NavMeshLayer: 0
  m_StaticEditorFlags: 0
  m_IsActive: 1
--- !u!4 &457106
Transform:
  m_ObjectHideFlags: 1
  m_PrefabParentObject: {fileID: 0}
  m_PrefabInternal: {fileID: 100100000}
  m_GameObject: {fileID: 134534}
  m_LocalRotation: {x: 0, y: 0, z: 0, w: 1}
  m_LocalPosition: {x: 461.6289, y: 268.9911, z: 0}
  m_LocalScale: {x: 1, y: 1, z: 1}
  m_Children: []
  m_Father: {fileID: 0}
  m_RootOrder: 0
  m_LocalEulerAnglesHint: {x: 0, y: 0, z: 0}
--- !u!114 &11477318
MonoBehaviour:
  m_ObjectHideFlags: 1
  m_PrefabParentObject: {fileID: 0}
  m_PrefabInternal: {fileID: 100100000}
  m_GameObject: {fileID: 134534}
  m_Enabled: 1
  m_EditorHideFlags: 0
  m_Script: {fileID: 11500000, guid: caedceaee5fc346f08e9e90417238c47, type: 3}
  m_Name: 
  m_EditorClassIdentifier: 
  defaultJigsawSettings:
    bombLivesShakeStart: 2
    useBombsAndHiddenSquares: 1
    showCorrectTiles: 1
    moveLumpsOfTiles: 1
    timerUsed: 1
    suddenDeath: 0
    tryAgain: 0
    infiniteQuestions: 0
    loseQuestionOnTimerExpire: 0
    resetTimerOnWrongAnswer: 1
    timeReductionOnCorrectAnswer: 0.9
    timerMinimumTime: 50
    timerMaximumTime: 100
    bonusForTimeLeft: 50
    baseScoreForCorrectAnswer: 1
    maxBonus: 100
    bonusIncreaseRate: 1.2
    minimumHotspotSize: 120
    showQuestionAtEndOfMovie: 0
    randomiseQuestions: 1
    gridX: 0
    gridY: 0
    showPreScreenBeforeQuiz: 0
--- !u!1001 &100100000
Prefab:
  m_ObjectHideFlags: 1
  serializedVersion: 2
  m_Modification:
    m_TransformParent: {fileID: 0}
    m_Modifications:
    - target: {fileID: 0}
      propertyPath: rapidFireSettings.bonusForTimeLeft
      value: 1
      objectReference: {fileID: 0}
    - target: {fileID: 0}
      propertyPath: hangmanSettings.timerUsed
      value: 1
      objectReference: {fileID: 0}
    - target: {fileID: 0}
      propertyPath: hangmanSettings.timerMinimumTime
      value: 10
      objectReference: {fileID: 0}
    - target: {fileID: 0}
      propertyPath: hangmanSettings.timerMaximumTime
      value: 60
      objectReference: {fileID: 0}
    - target: {fileID: 0}
      propertyPath: hangmanSettings.autoCompletePercentage
      value: .699999988
      objectReference: {fileID: 0}
    - target: {fileID: 0}
      propertyPath: hangmanSettings.timeReductionOnCorrectAnswer
      value: 1
      objectReference: {fileID: 0}
    - target: {fileID: 0}
      propertyPath: defaultRapidFireSettings.baseScoreForCorrectAnswer
      value: 10
      objectReference: {fileID: 0}
    - target: {fileID: 0}
      propertyPath: defaultHangmanSettings.timeReductionOnCorrectAnswer
      value: 1
      objectReference: {fileID: 0}
    - target: {fileID: 0}
      propertyPath: defaultHangmanSettings.timerMinimumTime
      value: 10
      objectReference: {fileID: 0}
    - target: {fileID: 0}
      propertyPath: defaultHangmanSettings.timerMaximumTime
      value: 90
      objectReference: {fileID: 0}
    - target: {fileID: 0}
      propertyPath: defaultHangmanSettings.autoCompletePercentage
      value: .699999988
      objectReference: {fileID: 0}
    - target: {fileID: 0}
      propertyPath: defaultHangmanSettings.suddenDeath
      value: 0
      objectReference: {fileID: 0}
    - target: {fileID: 0}
      propertyPath: defaultSquaresRevealSettings.timerMinimumTime
      value: 30
      objectReference: {fileID: 0}
    - target: {fileID: 0}
      propertyPath: defaultSquaresRevealSettings.timerMaximumTime
      value: 90
      objectReference: {fileID: 0}
    - target: {fileID: 0}
      propertyPath: defaultSquaresRevealSettings.autoCompletePercentage
      value: .699999988
      objectReference: {fileID: 0}
    - target: {fileID: 0}
      propertyPath: defaultScratchRevealSettings.timerMinimumTime
      value: 30
      objectReference: {fileID: 0}
    - target: {fileID: 0}
      propertyPath: defaultScratchRevealSettings.timerMaximumTime
      value: 90
      objectReference: {fileID: 0}
    - target: {fileID: 0}
      propertyPath: defaultScratchRevealSettings.autoCompletePercentage
      value: .699999988
      objectReference: {fileID: 0}
    - target: {fileID: 0}
      propertyPath: defaultScratchRevealSettings.pixelsPerBonusPoint
      value: 5
      objectReference: {fileID: 0}
    - target: {fileID: 0}
      propertyPath: defaultQuizFlowSettings.touchZoomFactor
      value: 3
      objectReference: {fileID: 0}
    - target: {fileID: 0}
      propertyPath: defaultWheresWallySettings.timerMaximumTime
      value: 300
      objectReference: {fileID: 0}
    - target: {fileID: 0}
      propertyPath: defaultWheresWallySettings.timerMinimumTime
      value: 100
      objectReference: {fileID: 0}
    - target: {fileID: 0}
      propertyPath: defaultWheresWallySettings.minimumHotspotSize
      value: 0
      objectReference: {fileID: 0}
    - target: {fileID: 0}
      propertyPath: defaultWheresWallySettings.touchZoomPressureCutoff
      value: .349999994
      objectReference: {fileID: 0}
    - target: {fileID: 0}
      propertyPath: defaultScratchRevealSettings.eraserMinimumSize
      value: 10
      objectReference: {fileID: 0}
    - target: {fileID: 0}
      propertyPath: defaultScratchRevealSettings.eraserMinimumAlpha
      value: .00999999978
      objectReference: {fileID: 0}
    - target: {fileID: 0}
      propertyPath: defaultJigsawSettings.timerMinimumTime
      value: 100
      objectReference: {fileID: 0}
    - target: {fileID: 0}
      propertyPath: defaultJigsawSettings.timerMaximumTime
      value: 300
      objectReference: {fileID: 0}
    - target: {fileID: 0}
      propertyPath: defaultJigsawSettings.bonusForTimeLeft
      value: 50
      objectReference: {fileID: 0}
    - target: {fileID: 0}
      propertyPath: defaultJigsawSettings.loseQuestionOnTimerExpire
      value: 0
      objectReference: {fileID: 0}
    m_RemovedComponents: []
  m_ParentPrefab: {fileID: 0}
  m_RootGameObject: {fileID: 134534}
  m_IsPrefabParent: 1
