%YAML 1.1
%TAG !u! tag:unity3d.com,2011:
--- !u!21 &2100000
Material:
  serializedVersion: 6
  m_ObjectHideFlags: 0
  m_PrefabParentObject: {fileID: 0}
  m_PrefabInternal: {fileID: 0}
  m_Name: color_3A
  m_Shader: {fileID: 4800000, guid: 078b2a90d062e49c9903390f113619d3, type: 3}
  m_ShaderKeywords: BACK_SOLID_ON COLR_1_2 FRONT_SOLID_ON LEFT_SOLID_ON RIGHT_SOLID_ON
  m_LightmapFlags: 4
  m_EnableInstancingVariants: 0
  m_DoubleSidedGI: 0
  m_CustomRenderQueue: -1
  stringTagMap: {}
  disabledShaderPasses: []
  m_SavedProperties:
    serializedVersion: 3
    m_TexEnvs:
    - _BumpMap:
        m_Texture: {fileID: 0}
        m_Scale: {x: 1, y: 1}
        m_Offset: {x: 0, y: 0}
    - _DetailAlbedoMap:
        m_Texture: {fileID: 0}
        m_Scale: {x: 1, y: 1}
        m_Offset: {x: 0, y: 0}
    - _DetailMask:
        m_Texture: {fileID: 0}
        m_Scale: {x: 1, y: 1}
        m_Offset: {x: 0, y: 0}
    - _DetailNormalMap:
        m_Texture: {fileID: 0}
        m_Scale: {x: 1, y: 1}
        m_Offset: {x: 0, y: 0}
    - _EmissionMap:
        m_Texture: {fileID: 0}
        m_Scale: {x: 1, y: 1}
        m_Offset: {x: 0, y: 0}
    - _MainTex:
        m_Texture: {fileID: 0}
        m_Scale: {x: 1, y: 1}
        m_Offset: {x: 0, y: 0}
    - _MetallicGlossMap:
        m_Texture: {fileID: 0}
        m_Scale: {x: 1, y: 1}
        m_Offset: {x: 0, y: 0}
    - _OcclusionMap:
        m_Texture: {fileID: 0}
        m_Scale: {x: 1, y: 1}
        m_Offset: {x: 0, y: 0}
    - _ParallaxMap:
        m_Texture: {fileID: 0}
        m_Scale: {x: 1, y: 1}
        m_Offset: {x: 0, y: 0}
    m_Floats:
    - _AmbientPower: 0
    - _BumpScale: 1
    - _Cutoff: 0.5
    - _DetailNormalMapScale: 1
    - _DstBlend: 0
    - _GlossMapScale: 1
    - _Glossiness: 0
    - _GlossyReflections: 1
    - _GradientHeight: 10
    - _GradientYStartPos: 0
    - _LightmapPower: 0.5
    - _Metallic: 0
    - _Mode: 0
    - _OcclusionStrength: 1
    - _Parallax: 0.02
    - _Rotation: 0
    - _ShadowPower: 0.25
    - _SmoothnessTextureChannel: 0
    - _SpecularHighlights: 1
    - _SrcBlend: 1
    - _UVSec: 0
    - _ZWrite: 1
    m_Colors:
    - _AmbientColor: {r: 0.5, g: 0.5, b: 0.5, a: 0}
    - _BackBottomColor: {r: 0.26505563, g: 0.8773585, b: 0.18623178, a: 0}
    - _BackTopColor: {r: 0.26505563, g: 0.8773585, b: 0.18623178, a: 0}
    - _BottomColor: {r: 0.17497966, g: 0.6792453, b: 0.06087574, a: 0}
    - _Color: {r: 0.120678134, g: 0.6603774, b: 0, a: 1}
    - _EmissionColor: {r: 0, g: 0, b: 0, a: 0}
    - _FrontBottomColor: {r: 0.10719572, g: 0.5754717, b: 0, a: 0}
    - _FrontTopColor: {r: 0.10719572, g: 0.5754717, b: 0, a: 0}
    - _LeftBottomColor: {r: 0.12752138, g: 0.3773585, b: 0.069419734, a: 0}
    - _LeftTopColor: {r: 0.12752138, g: 0.3773585, b: 0.069419734, a: 0}
    - _LightTint: {r: 1, g: 1, b: 1, a: 0}
    - _LightmapColor: {r: 0, g: 0, b: 0, a: 0}
    - _Offset: {r: 0, g: 0, b: 0, a: 1}
    - _RightBottomColor: {r: 0.12941177, g: 0.38039216, b: 0.07058824, a: 0}
    - _RightTopColor: {r: 0.12941177, g: 0.38039216, b: 0.07058824, a: 0}
    - _TopColor: {r: 0.13686478, g: 0.46226418, b: 0.06323426, a: 0}
