%YAML 1.1
%TAG !u! tag:unity3d.com,2011:
--- !u!21 &2100000
Material:
  serializedVersion: 6
  m_ObjectHideFlags: 0
  m_CorrespondingSourceObject: {fileID: 0}
  m_PrefabInternal: {fileID: 0}
  m_Name: rock cl6
  m_Shader: {fileID: 4800000, guid: e205ec5a2dab342e78812532c2f67fd5, type: 3}
  m_ShaderKeywords: BACK_SOLID_ON COLR_1_2 FRONT_SOLID_ON INDEPENDENT_SIDES LEFT_SOLID_ON
    LIGHTMAP_COLR_ON RIGHT_SOLID_ON
  m_LightmapFlags: 5
  m_EnableInstancingVariants: 0
  m_DoubleSidedGI: 0
  m_CustomRenderQueue: 2000
  stringTagMap: {}
  disabledShaderPasses: []
  m_SavedProperties:
    serializedVersion: 3
    m_TexEnvs:
    - _BumpMap:
        m_Texture: {fileID: 0}
        m_Scale: {x: 1, y: 1}
        m_Offset: {x: 0, y: 0}
    - _DetailAlbedoMap:
        m_Texture: {fileID: 0}
        m_Scale: {x: 1, y: 1}
        m_Offset: {x: 0, y: 0}
    - _DetailMask:
        m_Texture: {fileID: 0}
        m_Scale: {x: 1, y: 1}
        m_Offset: {x: 0, y: 0}
    - _DetailNormalMap:
        m_Texture: {fileID: 0}
        m_Scale: {x: 1, y: 1}
        m_Offset: {x: 0, y: 0}
    - _EmissionMap:
        m_Texture: {fileID: 0}
        m_Scale: {x: 1, y: 1}
        m_Offset: {x: 0, y: 0}
    - _MainTex:
        m_Texture: {fileID: 0}
        m_Scale: {x: 1, y: 1}
        m_Offset: {x: 0, y: 0}
    - _MetallicGlossMap:
        m_Texture: {fileID: 0}
        m_Scale: {x: 1, y: 1}
        m_Offset: {x: 0, y: 0}
    - _OcclusionMap:
        m_Texture: {fileID: 0}
        m_Scale: {x: 1, y: 1}
        m_Offset: {x: 0, y: 0}
    - _ParallaxMap:
        m_Texture: {fileID: 0}
        m_Scale: {x: 1, y: 1}
        m_Offset: {x: 0, y: 0}
    m_Floats:
    - _AmbientPower: 0
    - _BumpScale: 1
    - _Cutoff: 0.5
    - _DetailNormalMapScale: 1
    - _DstBlend: 0
    - _Glossiness: 0.5
    - _GradientHeight: 0
    - _GradientYStartPos: 3
    - _IsWorldSpace: 1
    - _LightmapPower: 0
    - _Metallic: 0
    - _Mode: 0
    - _OcclusionStrength: 1
    - _Parallax: 0.02
    - _Rotation: 0
    - _ShadowPower: 0.25
    - _SrcBlend: 1
    - _UVSec: 0
    - _UseLightMap: 1
    - _ZWrite: 1
    m_Colors:
    - _AmbientColor: {r: 1, g: 1, b: 1, a: 0}
    - _BackBottomColor: {r: 0.91372555, g: 0.20000002, b: 0.18431373, a: 0}
    - _BackColor: {r: 0.9921569, g: 0.49803925, b: 0.4039216, a: 0}
    - _BackTopColor: {r: 0.91372555, g: 0.20000002, b: 0.18431373, a: 0}
    - _BottomColor: {r: 0.8113208, g: 0.17504835, b: 0.16456035, a: 1}
    - _Color: {r: 1, g: 1, b: 1, a: 1}
    - _EmissionColor: {r: 0, g: 0, b: 0, a: 1}
    - _FrontBottomColor: {r: 0.7169812, g: 0.10145958, b: 0.064257726, a: 0}
    - _FrontColor: {r: 0.9921569, g: 0.49803925, b: 0.4039216, a: 0}
    - _FrontTopColor: {r: 0.7169812, g: 0.10145958, b: 0.064257726, a: 0}
    - _LeftBottomColor: {r: 0.91372555, g: 0.20000002, b: 0.18431373, a: 0}
    - _LeftColor: {r: 0.9921569, g: 0.49803925, b: 0.4039216, a: 0}
    - _LeftTopColor: {r: 0.91372555, g: 0.20000002, b: 0.18431373, a: 0}
    - _LightTint: {r: 1, g: 1, b: 1, a: 0}
    - _LightmapColor: {r: 0.16176468, g: 0.16176468, b: 0.16176468, a: 1}
    - _Offset: {r: 0, g: 0, b: 0, a: 0}
    - _RightBottomColor: {r: 0.6509434, g: 0.069743924, b: 0, a: 0}
    - _RightColor: {r: 0.9921569, g: 0.49803925, b: 0.4039216, a: 0}
    - _RightTopColor: {r: 0.6509434, g: 0.069743924, b: 0, a: 0}
    - _TopColor: {r: 0.9150943, g: 0.19937263, b: 0.18560876, a: 0}
