%YAML 1.1
%TAG !u! tag:unity3d.com,2011:
--- !u!114 &11400000
MonoBehaviour:
  m_ObjectHideFlags: 0
  m_CorrespondingSourceObject: {fileID: 0}
  m_PrefabInternal: {fileID: 0}
  m_GameObject: {fileID: 0}
  m_Enabled: 1
  m_EditorHideFlags: 0
  m_Script: {fileID: -1223223985, guid: aa81bbec85a3f423193272a7c6154986, type: 3}
  m_Name: Dreaming
  m_EditorClassIdentifier: 
  mEventID: Dreaming
  mEventList:
  - mStartSample: 164776
    mEndSample: 164776
  - mStartSample: 321414
    mEndSample: 321414
  - mStartSample: 477367
    mEndSample: 477367
  - mStartSample: 636112
    mEndSample: 636112
  - mStartSample: 792755
    mEndSample: 792755
  - mStartSample: 950589
    mEndSample: 950589
  - mStartSample: 1265544
    mEndSample: 1265544
  - mStartSample: 1425256
    mEndSample: 1425256
  - mStartSample: 1582364
    mEndSample: 1582364
  - mStartSample: 1902656
    mEndSample: 1902656
  - mStartSample: 2058520
    mEndSample: 2058520
  - mStartSample: 2219397
    mEndSample: 2219397
  - mStartSample: 2539901
    mEndSample: 2539901
  - mStartSample: 2696050
    mEndSample: 2696050
  - mStartSample: 2855986
    mEndSample: 2855986
  - mStartSample: 3161288
    mEndSample: 3161288
  - mStartSample: 3319123
    mEndSample: 3319123
  - mStartSample: 3477177
    mEndSample: 3477177
  - mStartSample: 3597600
    mEndSample: 3597600
  - mStartSample: 3792741
    mEndSample: 3792741
  - mStartSample: 3951340
    mEndSample: 3951340
  - mStartSample: 4110556
    mEndSample: 4110556
  - mStartSample: 4427436
    mEndSample: 4427436
  - mStartSample: 4582712
    mEndSample: 4582712
  - mStartSample: 4744309
    mEndSample: 4744309
  - mStartSample: 5058735
    mEndSample: 5058735
  - mStartSample: 5216591
    mEndSample: 5216591
  - mStartSample: 5377468
    mEndSample: 5377468
  - mStartSample: 5690577
    mEndSample: 5690577
  - mStartSample: 5851895
    mEndSample: 5851895
  - mStartSample: 6010626
    mEndSample: 6010626
  - mStartSample: 6324132
    mEndSample: 6324132
  - mStartSample: 6483848
    mEndSample: 6483848
  - mStartSample: 6642844
    mEndSample: 6642844
  - mStartSample: 6956130
    mEndSample: 6956130
  - mStartSample: 7115389
    mEndSample: 7115389
  - mStartSample: 7270357
    mEndSample: 7270357
  - mStartSample: 7586928
    mEndSample: 7586928
  - mStartSample: 7744739
    mEndSample: 7744739
  - mStartSample: 7904456
    mEndSample: 7904456
  - mStartSample: 8219624
    mEndSample: 8219624
  - mStartSample: 8375797
    mEndSample: 8375797
  - mStartSample: 8535056
    mEndSample: 8535056
  - mStartSample: 8850901
    mEndSample: 8850901
  - mStartSample: 9007074
    mEndSample: 9007074
  - mStartSample: 9167230
    mEndSample: 9167230
  - mStartSample: 9485941
    mEndSample: 9485941
  - mStartSample: 9643391
    mEndSample: 9643391
  - mStartSample: 9798381
    mEndSample: 9798381
  - mStartSample: 10074976
    mEndSample: 10074976
  - mStartSample: 10234160
    mEndSample: 10234160
  - mStartSample: 10442937
    mEndSample: 10442937
  - mStartSample: 10726386
    mEndSample: 10726386
  - mStartSample: 10887545
    mEndSample: 10887545
  - mStartSample: 11049868
    mEndSample: 11049868
  - mStartSample: 11209632
    mEndSample: 11209632
  - mStartSample: 11378078
    mEndSample: 11378078
  - mStartSample: 11540251
    mEndSample: 11540251
  - mStartSample: 11619309
    mEndSample: 11619309
  - mStartSample: 11658068
    mEndSample: 11658068
  - mStartSample: 11699567
    mEndSample: 11699567
  - mStartSample: 11929585
    mEndSample: 11929585
  - mStartSample: 11973067
    mEndSample: 11973067
  - mStartSample: 12017998
    mEndSample: 12017998
  _SerializedPayloadTypes: []
  _AssetPayloads: []
  _AssetPayloadIdxs: 
  _ColorPayloads: []
  _ColorPayloadIdxs: 
  _CurvePayloads: []
  _CurvePayloadIdxs: 
  _FloatPayloads: []
  _FloatPayloadIdxs: 
  _GradientPayloads: []
  _GradientPayloadIdxs: 
  _IntPayloads: []
  _IntPayloadIdxs: 
  _SpectrumPayloads: []
  _SpectrumPayloadIdxs: 
  _TextPayloads: []
  _TextPayloadIdxs: 
