%YAML 1.1
%TAG !u! tag:unity3d.com,2011:
--- !u!114 &11400000
MonoBehaviour:
  m_ObjectHideFlags: 0
  m_CorrespondingSourceObject: {fileID: 0}
  m_PrefabInternal: {fileID: 0}
  m_GameObject: {fileID: 0}
  m_Enabled: 1
  m_EditorHideFlags: 0
  m_Script: {fileID: -1223223985, guid: aa81bbec85a3f423193272a7c6154986, type: 3}
  m_Name: Light
  m_EditorClassIdentifier: 
  mEventID: Light
  mEventList:
  - mStartSample: 105432
    mEndSample: 105432
  - mStartSample: 291060
    mEndSample: 291060
  - mStartSample: 625914
    mEndSample: 625914
  - mStartSample: 779986
    mEndSample: 779986
  - mStartSample: 1003896
    mEndSample: 1003896
  - mStartSample: 1089509
    mEndSample: 1089509
  - mStartSample: 1210872
    mEndSample: 1210872
  - mStartSample: 1295544
    mEndSample: 1295544
  - mStartSample: 1384200
    mEndSample: 1384200
  - mStartSample: 1463007
    mEndSample: 1463007
  - mStartSample: 1565774
    mEndSample: 1565774
  - mStartSample: 1653048
    mEndSample: 1653048
  - mStartSample: 1765944
    mEndSample: 1765944
  - mStartSample: 1863788
    mEndSample: 1863788
  - mStartSample: 1977888
    mEndSample: 1977888
  - mStartSample: 2061576
    mEndSample: 2061576
  - mStartSample: 2360843
    mEndSample: 2360843
  - mStartSample: 2411866
    mEndSample: 2411866
  - mStartSample: 2607553
    mEndSample: 2607553
  - mStartSample: 2690343
    mEndSample: 2690343
  - mStartSample: 2864171
    mEndSample: 2864171
  - mStartSample: 2949107
    mEndSample: 2949107
  - mStartSample: 3178618
    mEndSample: 3178618
  - mStartSample: 3255544
    mEndSample: 3255544
  - mStartSample: 3409158
    mEndSample: 3409158
  - mStartSample: 3507898
    mEndSample: 3507898
  - mStartSample: 3660308
    mEndSample: 3660308
  - mStartSample: 3748743
    mEndSample: 3748743
  - mStartSample: 3913163
    mEndSample: 3913163
  - mStartSample: 3995013
    mEndSample: 3995013
  - mStartSample: 4178689
    mEndSample: 4178689
  - mStartSample: 4294407
    mEndSample: 4294407
  - mStartSample: 4622526
    mEndSample: 4622526
  - mStartSample: 4857990
    mEndSample: 4857990
  - mStartSample: 4940517
    mEndSample: 4940517
  - mStartSample: 5091045
    mEndSample: 5091045
  - mStartSample: 5177818
    mEndSample: 5177818
  - mStartSample: 5324363
    mEndSample: 5324363
  - mStartSample: 5404331
    mEndSample: 5404331
  - mStartSample: 5538866
    mEndSample: 5538866
  - mStartSample: 5633886
    mEndSample: 5633886
  - mStartSample: 5773918
    mEndSample: 5773918
  - mStartSample: 5866117
    mEndSample: 5866117
  - mStartSample: 5997609
    mEndSample: 5997609
  - mStartSample: 6086308
    mEndSample: 6086308
  - mStartSample: 6209509
    mEndSample: 6209509
  - mStartSample: 6298665
    mEndSample: 6298665
  - mStartSample: 6401212
    mEndSample: 6401212
  - mStartSample: 6670281
    mEndSample: 6670281
  - mStartSample: 6756114
    mEndSample: 6756114
  - mStartSample: 6915109
    mEndSample: 6915109
  - mStartSample: 7015554
    mEndSample: 7015554
  - mStartSample: 7161378
    mEndSample: 7161378
  - mStartSample: 7250754
    mEndSample: 7250754
  - mStartSample: 7392991
    mEndSample: 7392991
  - mStartSample: 7662825
    mEndSample: 7662825
  - mStartSample: 7747849
    mEndSample: 7747849
  - mStartSample: 7907433
    mEndSample: 7907433
  - mStartSample: 7996809
    mEndSample: 7996809
  - mStartSample: 8160728
    mEndSample: 8160728
  - mStartSample: 8249119
    mEndSample: 8249119
  - mStartSample: 8370306
    mEndSample: 8370306
  - mStartSample: 8623192
    mEndSample: 8623192
  - mStartSample: 8864401
    mEndSample: 8864401
  _SerializedPayloadTypes: []
  _AssetPayloads: []
  _AssetPayloadIdxs: 
  _ColorPayloads: []
  _ColorPayloadIdxs: 
  _CurvePayloads: []
  _CurvePayloadIdxs: 
  _FloatPayloads: []
  _FloatPayloadIdxs: 
  _GradientPayloads: []
  _GradientPayloadIdxs: 
  _IntPayloads: []
  _IntPayloadIdxs: 
  _SpectrumPayloads: []
  _SpectrumPayloadIdxs: 
  _TextPayloads: []
  _TextPayloadIdxs: 
