%YAML 1.1
%TAG !u! tag:unity3d.com,2011:
--- !u!114 &11400000
MonoBehaviour:
  m_ObjectHideFlags: 0
  m_CorrespondingSourceObject: {fileID: 0}
  m_PrefabInternal: {fileID: 0}
  m_GameObject: {fileID: 0}
  m_Enabled: 1
  m_EditorHideFlags: 0
  m_Script: {fileID: -1223223985, guid: aa81bbec85a3f423193272a7c6154986, type: 3}
  m_Name: Rainbow
  m_EditorClassIdentifier: 
  mEventID: Rainbow
  mEventList:
  - mStartSample: 47980
    mEndSample: 47980
  - mStartSample: 113272
    mEndSample: 113272
  - mStartSample: 139856
    mEndSample: 139856
  - mStartSample: 234479
    mEndSample: 234479
  - mStartSample: 300611
    mEndSample: 300611
  - mStartSample: 403354
    mEndSample: 403354
  - mStartSample: 466260
    mEndSample: 466260
  - mStartSample: 491531
    mEndSample: 491531
  - mStartSample: 587999
    mEndSample: 587999
  - mStartSample: 659052
    mEndSample: 659052
  - mStartSample: 679879
    mEndSample: 679879
  - mStartSample: 765024
    mEndSample: 765024
  - mStartSample: 780349
    mEndSample: 780349
  - mStartSample: 860652
    mEndSample: 860652
  - mStartSample: 909079
    mEndSample: 909079
  - mStartSample: 946708
    mEndSample: 946708
  - mStartSample: 994733
    mEndSample: 994733
  - mStartSample: 1046922
    mEndSample: 1046922
  - mStartSample: 1139490
    mEndSample: 1139490
  - mStartSample: 1176434
    mEndSample: 1176434
  - mStartSample: 1221278
    mEndSample: 1221278
  - mStartSample: 1266060
    mEndSample: 1266060
  - mStartSample: 1317007
    mEndSample: 1317007
  - mStartSample: 1381658
    mEndSample: 1381658
  - mStartSample: 1409564
    mEndSample: 1409564
  - mStartSample: 1525224
    mEndSample: 1525224
  - mStartSample: 1563729
    mEndSample: 1563729
  - mStartSample: 1597854
    mEndSample: 1597854
  - mStartSample: 1680532
    mEndSample: 1680532
  - mStartSample: 1721721
    mEndSample: 1721721
  - mStartSample: 1742857
    mEndSample: 1742857
  - mStartSample: 1827153
    mEndSample: 1827153
  - mStartSample: 1842390
    mEndSample: 1842390
  - mStartSample: 1884798
    mEndSample: 1884798
  - mStartSample: 1917350
    mEndSample: 1917350
  - mStartSample: 1958557
    mEndSample: 1958557
  - mStartSample: 2003415
    mEndSample: 2003415
  - mStartSample: 2042853
    mEndSample: 2042853
  - mStartSample: 2166970
    mEndSample: 2166970
  - mStartSample: 2191687
    mEndSample: 2191687
  - mStartSample: 2235152
    mEndSample: 2235152
  - mStartSample: 2290171
    mEndSample: 2290171
  - mStartSample: 2363221
    mEndSample: 2363221
  - mStartSample: 2383875
    mEndSample: 2383875
  - mStartSample: 2436917
    mEndSample: 2436917
  - mStartSample: 2489733
    mEndSample: 2489733
  - mStartSample: 2638191
    mEndSample: 2638191
  - mStartSample: 2694827
    mEndSample: 2694827
  - mStartSample: 2723427
    mEndSample: 2723427
  - mStartSample: 2766328
    mEndSample: 2766328
  - mStartSample: 2809492
    mEndSample: 2809492
  - mStartSample: 2847613
    mEndSample: 2847613
  - mStartSample: 2899545
    mEndSample: 2899545
  - mStartSample: 2978008
    mEndSample: 2978008
  - mStartSample: 3001416
    mEndSample: 3001416
  - mStartSample: 3042547
    mEndSample: 3042547
  - mStartSample: 3080443
    mEndSample: 3080443
  - mStartSample: 3123396
    mEndSample: 3123396
  - mStartSample: 3166244
    mEndSample: 3166244
  - mStartSample: 3346930
    mEndSample: 3346930
  - mStartSample: 3388385
    mEndSample: 3388385
  - mStartSample: 3431549
    mEndSample: 3431549
  - mStartSample: 3530634
    mEndSample: 3530634
  - mStartSample: 3603204
    mEndSample: 3603204
  - mStartSample: 3659599
    mEndSample: 3659599
  - mStartSample: 3814214
    mEndSample: 3814214
  - mStartSample: 3897863
    mEndSample: 3897863
  - mStartSample: 3993508
    mEndSample: 3993508
  - mStartSample: 4198166
    mEndSample: 4198166
  - mStartSample: 4276012
    mEndSample: 4276012
  - mStartSample: 4336711
    mEndSample: 4336711
  - mStartSample: 4415739
    mEndSample: 4415739
  - mStartSample: 4483476
    mEndSample: 4483476
  - mStartSample: 4547827
    mEndSample: 4547827
  - mStartSample: 4592985
    mEndSample: 4592985
  - mStartSample: 4682437
    mEndSample: 4682437
  - mStartSample: 4902584
    mEndSample: 4902584
  - mStartSample: 4988332
    mEndSample: 4988332
  - mStartSample: 5039189
    mEndSample: 5039189
  - mStartSample: 5087470
    mEndSample: 5087470
  - mStartSample: 5265846
    mEndSample: 5265846
  - mStartSample: 5394510
    mEndSample: 5394510
  - mStartSample: 5446479
    mEndSample: 5446479
  - mStartSample: 5545828
    mEndSample: 5545828
  - mStartSample: 5682600
    mEndSample: 5682600
  - mStartSample: 5744525
    mEndSample: 5744525
  - mStartSample: 5926287
    mEndSample: 5926287
  - mStartSample: 6025636
    mEndSample: 6025636
  _SerializedPayloadTypes: []
  _AssetPayloads: []
  _AssetPayloadIdxs: 
  _ColorPayloads: []
  _ColorPayloadIdxs: 
  _CurvePayloads: []
  _CurvePayloadIdxs: 
  _FloatPayloads: []
  _FloatPayloadIdxs: 
  _GradientPayloads: []
  _GradientPayloadIdxs: 
  _IntPayloads: []
  _IntPayloadIdxs: 
  _SpectrumPayloads: []
  _SpectrumPayloadIdxs: 
  _TextPayloads: []
  _TextPayloadIdxs: 
