%YAML 1.1
%TAG !u! tag:unity3d.com,2011:
--- !u!114 &11400000
MonoBehaviour:
  m_ObjectHideFlags: 0
  m_CorrespondingSourceObject: {fileID: 0}
  m_PrefabInternal: {fileID: 0}
  m_GameObject: {fileID: 0}
  m_Enabled: 1
  m_EditorHideFlags: 0
  m_Script: {fileID: -1223223985, guid: aa81bbec85a3f423193272a7c6154986, type: 3}
  m_Name: The Wind
  m_EditorClassIdentifier: 
  mEventID: The Wind
  mEventList:
  - mStartSample: 107691
    mEndSample: 107691
  - mStartSample: 176870
    mEndSample: 176870
  - mStartSample: 266928
    mEndSample: 266928
  - mStartSample: 323640
    mEndSample: 323640
  - mStartSample: 374688
    mEndSample: 374688
  - mStartSample: 437527
    mEndSample: 437527
  - mStartSample: 509145
    mEndSample: 509145
  - mStartSample: 545550
    mEndSample: 545550
  - mStartSample: 675494
    mEndSample: 675494
  - mStartSample: 708350
    mEndSample: 708350
  - mStartSample: 760446
    mEndSample: 760446
  - mStartSample: 808339
    mEndSample: 808339
  - mStartSample: 878393
    mEndSample: 878393
  - mStartSample: 960325
    mEndSample: 960325
  - mStartSample: 1149018
    mEndSample: 1149018
  - mStartSample: 1209906
    mEndSample: 1209906
  - mStartSample: 1256005
    mEndSample: 1256005
  - mStartSample: 1316994
    mEndSample: 1316994
  - mStartSample: 1393604
    mEndSample: 1393604
  - mStartSample: 1431953
    mEndSample: 1431953
  - mStartSample: 1474733
    mEndSample: 1474733
  - mStartSample: 1539895
    mEndSample: 1539895
  - mStartSample: 1700613
    mEndSample: 1700613
  - mStartSample: 1759854
    mEndSample: 1759854
  - mStartSample: 2037419
    mEndSample: 2037419
  - mStartSample: 2081637
    mEndSample: 2081637
  - mStartSample: 2135263
    mEndSample: 2135263
  - mStartSample: 2199710
    mEndSample: 2199710
  - mStartSample: 2273979
    mEndSample: 2273979
  - mStartSample: 2302507
    mEndSample: 2302507
  - mStartSample: 2480442
    mEndSample: 2480442
  - mStartSample: 2519279
    mEndSample: 2519279
  - mStartSample: 2563233
    mEndSample: 2563233
  - mStartSample: 2642016
    mEndSample: 2642016
  - mStartSample: 2722361
    mEndSample: 2722361
  - mStartSample: 2909580
    mEndSample: 2909580
  - mStartSample: 2963205
    mEndSample: 2963205
  - mStartSample: 3020594
    mEndSample: 3020594
  - mStartSample: 3083265
    mEndSample: 3083265
  - mStartSample: 3162167
    mEndSample: 3162167
  - mStartSample: 3198983
    mEndSample: 3198983
  - mStartSample: 3254178
    mEndSample: 3254178
  - mStartSample: 3306565
    mEndSample: 3306565
  - mStartSample: 3460249
    mEndSample: 3460249
  - mStartSample: 3524971
    mEndSample: 3524971
  - mStartSample: 3791147
    mEndSample: 3791147
  - mStartSample: 3840332
    mEndSample: 3840332
  - mStartSample: 3905994
    mEndSample: 3905994
  - mStartSample: 3962772
    mEndSample: 3962772
  - mStartSample: 4232382
    mEndSample: 4232382
  - mStartSample: 4286007
    mEndSample: 4286007
  - mStartSample: 4352264
    mEndSample: 4352264
  - mStartSample: 4407300
    mEndSample: 4407300
  - mStartSample: 4676439
    mEndSample: 4676439
  - mStartSample: 4729344
    mEndSample: 4729344
  - mStartSample: 4784631
    mEndSample: 4784631
  - mStartSample: 4847661
    mEndSample: 4847661
  - mStartSample: 4920956
    mEndSample: 4920956
  - mStartSample: 4954181
    mEndSample: 4954181
  - mStartSample: 5115058
    mEndSample: 5115058
  - mStartSample: 5168903
    mEndSample: 5168903
  - mStartSample: 5226468
    mEndSample: 5226468
  - mStartSample: 5288970
    mEndSample: 5288970
  - mStartSample: 5566642
    mEndSample: 5566642
  - mStartSample: 5614623
    mEndSample: 5614623
  - mStartSample: 5668248
    mEndSample: 5668248
  - mStartSample: 5725313
    mEndSample: 5725313
  - mStartSample: 5804664
    mEndSample: 5804664
  - mStartSample: 5834151
    mEndSample: 5834151
  - mStartSample: 5997528
    mEndSample: 5997528
  - mStartSample: 6055136
    mEndSample: 6055136
  - mStartSample: 6111629
    mEndSample: 6111629
  - mStartSample: 6172517
    mEndSample: 6172517
  - mStartSample: 6239423
    mEndSample: 6239423
  - mStartSample: 6437932
    mEndSample: 6437932
  - mStartSample: 6495321
    mEndSample: 6495321
  - mStartSample: 6551769
    mEndSample: 6551769
  - mStartSample: 6611440
    mEndSample: 6611440
  - mStartSample: 6689765
    mEndSample: 6689765
  - mStartSample: 6728074
    mEndSample: 6728074
  - mStartSample: 6772291
    mEndSample: 6772291
  - mStartSample: 6833280
    mEndSample: 6833280
  - mStartSample: 6989995
    mEndSample: 6989995
  - mStartSample: 7057290
    mEndSample: 7057290
  - mStartSample: 7283117
    mEndSample: 7283117
  _SerializedPayloadTypes: []
  _AssetPayloads: []
  _AssetPayloadIdxs: 
  _ColorPayloads: []
  _ColorPayloadIdxs: 
  _CurvePayloads: []
  _CurvePayloadIdxs: 
  _FloatPayloads: []
  _FloatPayloadIdxs: 
  _GradientPayloads: []
  _GradientPayloadIdxs: 
  _IntPayloads: []
  _IntPayloadIdxs: 
  _SpectrumPayloads: []
  _SpectrumPayloadIdxs: 
  _TextPayloads: []
  _TextPayloadIdxs: 
