%YAML 1.1
%TAG !u! tag:unity3d.com,2011:
--- !u!114 &11400000
MonoBehaviour:
  m_ObjectHideFlags: 0
  m_CorrespondingSourceObject: {fileID: 0}
  m_PrefabInternal: {fileID: 0}
  m_GameObject: {fileID: 0}
  m_Enabled: 1
  m_EditorHideFlags: 0
  m_Script: {fileID: -1223223985, guid: aa81bbec85a3f423193272a7c6154986, type: 3}
  m_Name: Whisper of the Night
  m_EditorClassIdentifier: 
  mEventID: Whisper of the Night
  mEventList:
  - mStartSample: 27283
    mEndSample: 27283
  - mStartSample: 71764
    mEndSample: 71764
  - mStartSample: 116659
    mEndSample: 116659
  - mStartSample: 212064
    mEndSample: 212064
  - mStartSample: 388237
    mEndSample: 388237
  - mStartSample: 472281
    mEndSample: 472281
  - mStartSample: 566479
    mEndSample: 566479
  - mStartSample: 749935
    mEndSample: 749935
  - mStartSample: 787296
    mEndSample: 787296
  - mStartSample: 829879
    mEndSample: 829879
  - mStartSample: 923983
    mEndSample: 923983
  - mStartSample: 966759
    mEndSample: 966759
  - mStartSample: 1009854
    mEndSample: 1009854
  - mStartSample: 1191925
    mEndSample: 1191925
  - mStartSample: 1233765
    mEndSample: 1233765
  - mStartSample: 1285514
    mEndSample: 1285514
  - mStartSample: 1463282
    mEndSample: 1463282
  - mStartSample: 1641814
    mEndSample: 1641814
  - mStartSample: 1828092
    mEndSample: 1828092
  - mStartSample: 1871251
    mEndSample: 1871251
  - mStartSample: 1910764
    mEndSample: 1910764
  - mStartSample: 1998597
    mEndSample: 1998597
  - mStartSample: 2179010
    mEndSample: 2179010
  - mStartSample: 2273280
    mEndSample: 2273280
  - mStartSample: 2360585
    mEndSample: 2360585
  - mStartSample: 2538396
    mEndSample: 2538396
  - mStartSample: 2579861
    mEndSample: 2579861
  - mStartSample: 2628903
    mEndSample: 2628903
  - mStartSample: 2672430
    mEndSample: 2672430
  - mStartSample: 2716471
    mEndSample: 2716471
  - mStartSample: 2898722
    mEndSample: 2898722
  - mStartSample: 2942069
    mEndSample: 2942069
  - mStartSample: 3086882
    mEndSample: 3086882
  - mStartSample: 3257167
    mEndSample: 3257167
  - mStartSample: 3300326
    mEndSample: 3300326
  - mStartSample: 3387564
    mEndSample: 3387564
  - mStartSample: 3439006
    mEndSample: 3439006
  - mStartSample: 3615832
    mEndSample: 3615832
  - mStartSample: 3658953
    mEndSample: 3658953
  - mStartSample: 3796246
    mEndSample: 3796246
  - mStartSample: 3843349
    mEndSample: 3843349
  - mStartSample: 3882493
    mEndSample: 3882493
  - mStartSample: 3926266
    mEndSample: 3926266
  - mStartSample: 3975938
    mEndSample: 3975938
  - mStartSample: 4064255
    mEndSample: 4064255
  - mStartSample: 4156572
    mEndSample: 4156572
  - mStartSample: 4336951
    mEndSample: 4336951
  - mStartSample: 4517408
    mEndSample: 4517408
  - mStartSample: 4694279
    mEndSample: 4694279
  - mStartSample: 4868547
    mEndSample: 4868547
  - mStartSample: 5049901
    mEndSample: 5049901
  - mStartSample: 5250292
    mEndSample: 5250292
  - mStartSample: 5410404
    mEndSample: 5410404
  - mStartSample: 5588259
    mEndSample: 5588259
  - mStartSample: 5675797
    mEndSample: 5675797
  - mStartSample: 5769613
    mEndSample: 5769613
  - mStartSample: 5953069
    mEndSample: 5953069
  - mStartSample: 6126176
    mEndSample: 6126176
  - mStartSample: 6311514
    mEndSample: 6311514
  - mStartSample: 6486503
    mEndSample: 6486503
  - mStartSample: 6664666
    mEndSample: 6664666
  - mStartSample: 6764400
    mEndSample: 6764400
  - mStartSample: 6798216
    mEndSample: 6798216
  - mStartSample: 6848711
    mEndSample: 6848711
  _SerializedPayloadTypes: []
  _AssetPayloads: []
  _AssetPayloadIdxs: 
  _ColorPayloads: []
  _ColorPayloadIdxs: 
  _CurvePayloads: []
  _CurvePayloadIdxs: 
  _FloatPayloads: []
  _FloatPayloadIdxs: 
  _GradientPayloads: []
  _GradientPayloadIdxs: 
  _IntPayloads: []
  _IntPayloadIdxs: 
  _SpectrumPayloads: []
  _SpectrumPayloadIdxs: 
  _TextPayloads: []
  _TextPayloadIdxs: 
