%YAML 1.1
%TAG !u! tag:unity3d.com,2011:
--- !u!21 &2100000
Material:
  serializedVersion: 6
  m_ObjectHideFlags: 0
  m_PrefabParentObject: {fileID: 0}
  m_PrefabInternal: {fileID: 0}
  m_Name: Scifi_Structure_7
  m_Shader: {fileID: 46, guid: 0000000000000000f000000000000000, type: 0}
  m_ShaderKeywords: COLR_1_2
  m_LightmapFlags: 5
  m_EnableInstancingVariants: 0
  m_DoubleSidedGI: 0
  m_CustomRenderQueue: -1
  stringTagMap: {}
  disabledShaderPasses: []
  m_SavedProperties:
    serializedVersion: 3
    m_TexEnvs:
    - _BumpMap:
        m_Texture: {fileID: 0}
        m_Scale: {x: 1, y: 1}
        m_Offset: {x: 0, y: 0}
    - _DetailAlbedoMap:
        m_Texture: {fileID: 2800000, guid: 1dc2c35997c226a49aad5b83d5f781eb, type: 3}
        m_Scale: {x: 1, y: 1}
        m_Offset: {x: 0, y: 0}
    - _DetailMask:
        m_Texture: {fileID: 0}
        m_Scale: {x: 1, y: 1}
        m_Offset: {x: 0, y: 0}
    - _DetailNormalMap:
        m_Texture: {fileID: 0}
        m_Scale: {x: 1, y: 1}
        m_Offset: {x: 0, y: 0}
    - _EmissionMap:
        m_Texture: {fileID: 0}
        m_Scale: {x: 1, y: 1}
        m_Offset: {x: 0, y: 0}
    - _MainTex:
        m_Texture: {fileID: 2800000, guid: 1dc2c35997c226a49aad5b83d5f781eb, type: 3}
        m_Scale: {x: 1, y: 1}
        m_Offset: {x: 0, y: 0}
    - _MetallicGlossMap:
        m_Texture: {fileID: 0}
        m_Scale: {x: 1, y: 1}
        m_Offset: {x: 0, y: 0}
    - _OcclusionMap:
        m_Texture: {fileID: 0}
        m_Scale: {x: 1, y: 1}
        m_Offset: {x: 0, y: 0}
    - _ParallaxMap:
        m_Texture: {fileID: 0}
        m_Scale: {x: 1, y: 1}
        m_Offset: {x: 0, y: 0}
    m_Floats:
    - _AmbientPower: 0
    - _BumpScale: 1
    - _Cutoff: 0.5
    - _DetailNormalMapScale: 1
    - _DstBlend: 0
    - _GlossMapScale: 1
    - _Glossiness: 0.12
    - _GlossyReflections: 1
    - _GradientHeight: 10
    - _GradientYStartPos: 0
    - _LightmapPower: 0.5
    - _Metallic: 0.47
    - _Mode: 0
    - _OcclusionStrength: 1
    - _Parallax: 0.02
    - _Rotation: 0
    - _SmoothnessTextureChannel: 0
    - _SpecularHighlights: 1
    - _SrcBlend: 1
    - _UVSec: 0
    - _ZWrite: 1
    m_Colors:
    - _AmbientColor: {r: 0.5, g: 0.5, b: 0.5, a: 0}
    - _BackBottomColor: {r: 0, g: 0.5, b: 0.5, a: 0}
    - _BackTopColor: {r: 0, g: 1, b: 0, a: 0}
    - _BottomColor: {r: 0, g: 0.5, b: 0.5, a: 0}
    - _Color: {r: 0.27205884, g: 0.27205884, b: 0.27205884, a: 1}
    - _EmissionColor: {r: 0, g: 0, b: 0, a: 1}
    - _FrontBottomColor: {r: 0, g: 0.5, b: 0.5, a: 0}
    - _FrontTopColor: {r: 0, g: 1, b: 0, a: 0}
    - _LeftBottomColor: {r: 0, g: 0.5, b: 0.5, a: 0}
    - _LeftTopColor: {r: 0, g: 1, b: 0, a: 0}
    - _LightTint: {r: 1, g: 1, b: 1, a: 0}
    - _LightmapColor: {r: 0, g: 0, b: 0, a: 0}
    - _Offset: {r: 0, g: 0, b: 0, a: 1}
    - _RightBottomColor: {r: 0, g: 0.5, b: 0.5, a: 0}
    - _RightTopColor: {r: 0, g: 1, b: 0, a: 0}
    - _TopColor: {r: 0, g: 1, b: 0, a: 0}
