%YAML 1.1
%TAG !u! tag:unity3d.com,2011:
--- !u!21 &2100000
Material:
  serializedVersion: 6
  m_ObjectHideFlags: 0
  m_PrefabParentObject: {fileID: 0}
  m_PrefabInternal: {fileID: 0}
  m_Name: Ship_5
  m_Shader: {fileID: 4800000, guid: 078b2a90d062e49c9903390f113619d3, type: 3}
  m_ShaderKeywords: COLR_1_2
  m_LightmapFlags: 1
  m_EnableInstancingVariants: 0
  m_DoubleSidedGI: 0
  m_CustomRenderQueue: -1
  stringTagMap: {}
  disabledShaderPasses: []
  m_SavedProperties:
    serializedVersion: 3
    m_TexEnvs:
    - _BumpMap:
        m_Texture: {fileID: 0}
        m_Scale: {x: 1, y: 1}
        m_Offset: {x: 0, y: 0}
    - _Cube:
        m_Texture: {fileID: 0}
        m_Scale: {x: 1, y: 1}
        m_Offset: {x: 0, y: 0}
    - _DetailAlbedoMap:
        m_Texture: {fileID: 2800000, guid: 9a6ffdad0862e4945a98170c890105cf, type: 3}
        m_Scale: {x: 1, y: 1}
        m_Offset: {x: 0, y: 0}
    - _DetailMask:
        m_Texture: {fileID: 0}
        m_Scale: {x: 1, y: 1}
        m_Offset: {x: 0, y: 0}
    - _DetailNormalMap:
        m_Texture: {fileID: 0}
        m_Scale: {x: 1, y: 1}
        m_Offset: {x: 0, y: 0}
    - _EmissionMap:
        m_Texture: {fileID: 0}
        m_Scale: {x: 1, y: 1}
        m_Offset: {x: 0, y: 0}
    - _FaceTex:
        m_Texture: {fileID: 0}
        m_Scale: {x: 1, y: 1}
        m_Offset: {x: 0, y: 0}
    - _LightMap:
        m_Texture: {fileID: 2800000, guid: 9a6ffdad0862e4945a98170c890105cf, type: 3}
        m_Scale: {x: 1, y: 1}
        m_Offset: {x: 0, y: 0}
    - _MainTex:
        m_Texture: {fileID: 2800000, guid: 9a6ffdad0862e4945a98170c890105cf, type: 3}
        m_Scale: {x: 1, y: 1}
        m_Offset: {x: 0, y: 0}
    - _MetallicGlossMap:
        m_Texture: {fileID: 0}
        m_Scale: {x: 1, y: 1}
        m_Offset: {x: 0, y: 0}
    - _OcclusionMap:
        m_Texture: {fileID: 0}
        m_Scale: {x: 1, y: 1}
        m_Offset: {x: 0, y: 0}
    - _OutlineTex:
        m_Texture: {fileID: 0}
        m_Scale: {x: 1, y: 1}
        m_Offset: {x: 0, y: 0}
    - _ParallaxMap:
        m_Texture: {fileID: 0}
        m_Scale: {x: 1, y: 1}
        m_Offset: {x: 0, y: 0}
    - _SpecGlossMap:
        m_Texture: {fileID: 0}
        m_Scale: {x: 1, y: 1}
        m_Offset: {x: 0, y: 0}
    m_Floats:
    - _Ambient: 0.5
    - _AmbientPower: 0
    - _Bevel: 0.5
    - _BevelClamp: 0
    - _BevelOffset: 0
    - _BevelRoundness: 0
    - _BevelWidth: 0
    - _BumpAmt: 28.7
    - _BumpFace: 0
    - _BumpOutline: 0
    - _BumpScale: 1
    - _Cutoff: 1
    - _DetailNormalMapScale: 1
    - _Diffuse: 0.5
    - _DstBlend: 0
    - _EmissionScaleUI: 0
    - _FaceDilate: 0
    - _FaceUVSpeedX: 0
    - _FaceUVSpeedY: 0
    - _GlossMapScale: 1
    - _Glossiness: 0.141
    - _GlossyReflections: 1
    - _GlowInner: 0.05
    - _GlowOffset: 0
    - _GlowOuter: 0.05
    - _GlowPower: 0.75
    - _GradientHeight: 10
    - _GradientScale: 5
    - _GradientYStartPos: 0
    - _LightAngle: 3.1416
    - _LightmapPower: 0.5
    - _MaskSoftnessX: 0
    - _MaskSoftnessY: 0
    - _Metallic: 0.871
    - _Mode: 0
    - _OcclusionStrength: 1
    - _OutlineSoftness: 0
    - _OutlineUVSpeedX: 0
    - _OutlineUVSpeedY: 0
    - _OutlineWidth: 0
    - _Parallax: 0.02
    - _PerspectiveFilter: 0.875
    - _Reflectivity: 10
    - _Rotation: 0
    - _ScaleRatioA: 1
    - _ScaleRatioB: 1
    - _ScaleRatioC: 1
    - _ScaleX: 1
    - _ScaleY: 1
    - _ShaderFlags: 0
    - _Shininess: 0.078125
    - _SmoothnessTextureChannel: 0
    - _SpecularHighlights: 1
    - _SpecularPower: 2
    - _SrcBlend: 1
    - _Stencil: 0
    - _StencilComp: 8
    - _StencilOp: 0
    - _StencilReadMask: 255
    - _StencilWriteMask: 255
    - _TextureHeight: 512
    - _TextureWidth: 512
    - _UVSec: 0
    - _UnderlayDilate: 0
    - _UnderlayOffsetX: 0
    - _UnderlayOffsetY: 0
    - _UnderlaySoftness: 0
    - _VertexOffsetX: 0
    - _VertexOffsetY: 0
    - _WeightBold: 0.5
    - _WeightNormal: 0
    - _ZWrite: 1
    m_Colors:
    - _AmbientColor: {r: 0.5, g: 0.5, b: 0.5, a: 0}
    - _BackBottomColor: {r: 1, g: 1, b: 1, a: 0}
    - _BackTopColor: {r: 1, g: 1, b: 1, a: 0}
    - _BottomColor: {r: 1, g: 1, b: 1, a: 0}
    - _Color: {r: 0.6764706, g: 0.6764706, b: 0.6764706, a: 1}
    - _EmissionColor: {r: 0, g: 0, b: 0, a: 0}
    - _EmissionColorUI: {r: 1, g: 1, b: 1, a: 1}
    - _EnvMatrixRotation: {r: 0, g: 0, b: 0, a: 0}
    - _FaceColor: {r: 1, g: 1, b: 1, a: 1}
    - _FrontBottomColor: {r: 1, g: 1, b: 1, a: 0}
    - _FrontTopColor: {r: 1, g: 1, b: 1, a: 0}
    - _GlowColor: {r: 0, g: 1, b: 0, a: 0.5}
    - _LeftBottomColor: {r: 1, g: 1, b: 1, a: 0}
    - _LeftTopColor: {r: 1, g: 1, b: 1, a: 0}
    - _LightTint: {r: 1, g: 1, b: 1, a: 0}
    - _LightmapColor: {r: 0, g: 0, b: 0, a: 0}
    - _MaskCoord: {r: 0, g: 0, b: 100000, a: 100000}
    - _Offset: {r: 0, g: 0, b: 0, a: 1}
    - _OutlineColor: {r: 0, g: 0, b: 0, a: 1}
    - _ReflectFaceColor: {r: 0, g: 0, b: 0, a: 1}
    - _ReflectOutlineColor: {r: 0, g: 0, b: 0, a: 1}
    - _RightBottomColor: {r: 1, g: 1, b: 1, a: 0}
    - _RightTopColor: {r: 1, g: 1, b: 1, a: 0}
    - _SpecColor: {r: 0, g: 0, b: 0, a: 1}
    - _SpecularColor: {r: 1, g: 1, b: 1, a: 1}
    - _TopColor: {r: 1, g: 1, b: 1, a: 0}
    - _UnderlayColor: {r: 0, g: 0, b: 0, a: 0.5}
